Pruebas consulta popular
…
## # A tibble: 4 × 3
##   party        suma pct_obs
##   <chr>       <dbl>   <dbl>
## 1 nulo      4465900    9.38
## 2 se_quede 22305832   46.9 
## 3 se_vaya  20815284   43.7 
## 4 part     47587016   50.0

Cobertura BNH

estratos_tbl <- computos_tbl |> group_by(ID_ESTRATO) |> count()
estratos_tbl

## # A tibble: 300 × 2
## # Groups:   ID_ESTRATO [300]
##    ID_ESTRATO     n
##         <dbl> <int>
##  1        101   197
##  2        102   199
##  3        103   213
##  4        201   222
##  5        202   205
##  6        203   214
##  7        204   259
##  8        205   228
##  9        206   215
## 10        207   254
## # … with 290 more rows
…
