Pruebas consulta popular - 1200 - contaminadas
…
## Rows: 240200 Columns: 18
## ── Column specification ──────────────────────────────────────────────────────────────────
## Delimiter: ","
## chr (10): CLAVE_MRCP, ENTIDAD, DISTRITO_FEDERAL, SECCION_SEDE, TIPO_MRCP, ID...
## dbl  (8): ID_ENTIDAD, ID_DISTRITO_FEDERAL, OPINION_SI, OPINION_NO, NULOS, TO...
## 
## ℹ Use `spec()` to retrieve the full column specification for this data.
## ℹ Specify the column types or set `show_col_types = FALSE` to quiet this message.

Cobertura BNH

estratos_tbl <- computos_tbl |> group_by(ESTRATO) |> count()
estratos_tbl

## # A tibble: 300 × 2
## # Groups:   ESTRATO [300]
##    ESTRATO     n
##    <chr>   <int>
##  1 0101      196
##  2 0102      198
##  3 0103      211
##  4 0201      205
##  5 0202      204
##  6 0203      213
##  7 0204      237
##  8 0205      227
##  9 0206      214
## 10 0207      228
## # … with 290 more rows
…
